{
    "version": "1.0.0",
    "summary": "helpful summary of your project, less than 80 characters",
    "repository": "https://github.com/user/project.git",
    "license": "BSD3",
    "source-directories": [
        "clock",
        "nesting"
    ],
    "exposed-modules": [],
    "dependencies": {
        "elm-community/elm-test": "1.1.0 <= v < 2.0.0",
        "elm-lang/core": "4.0.1 <= v < 5.0.0",
        "elm-lang/html": "1.0.0 <= v < 2.0.0",
        "elm-lang/svg": "1.0.0 <= v < 2.0.0",
        "evancz/elm-http": "3.0.1 <= v < 4.0.0"
    },
    "elm-version": "0.17.0 <= v < 0.18.0"
}